Бабенко,НФ,,
Кубів,БПП,БПП ,Блок Петра Порошенка
Шпенов,ОБ,НФ,Народний Фронт
Мартовицький,ОБ,РПОЛ,Радикальна партія Олега Ляшка
Гриневич,НФ,ОБ,Опозиційний Блок
Шурма,ОБ,ПФ,Позафракційні
Гальченко,ОБ,ВОБ,ВО Батьківщина
Павлов,ОБ,,
Долженков,ОБ,,
Воропаєв,ОБ,,
Білий,ОБ,,
Колєсніков,ОБ,,
Сажко,ОБ,,
Кісельов,ОБ,,
Матвієнко С.А.,ОБ,,
Ляшко,РПОЛ,,
Ленський,РПОЛ,,
Кошелєва,РПОЛ,,
Силантьєв,РПОЛ,,
Бабенко,НФ,,
Сочка,НФ,,
Мепарішвілі,НФ,,
Єдаков,НФ,,
Саврасов,БПП,,
Ковальчук,БПП,,
Павленко,БПП,,
Осуховський,ПФ,,
Іллєнко,ПФ,,
Левченко,ПФ,,
Квіт,БПП,,
Розенко,БПП,,
Вощевський,РПОЛ,,
Петренко,ПФ,,
Жданов,ВОБ,,
Кириленко,ВОБ,,
Стець,БПП,,
Аваков,НФ,,
